{
  "SEERS_RING_I": [ "SEERS_RING" ],
  "ARCHERS_RING_I": [ "ARCHERS_RING" ],
  "WARRIOR_RING_I": [ "WARRIOR_RING" ],
  "BERSERKER_RING_I": [ "BERSERKER_RING" ],
  "BLACK_MASK_10_I": [ "BLACK_MASK_10" ],
  "BLACK_MASK_9_I": [ "BLACK_MASK_9" ],
  "BLACK_MASK_8_I": [ "BLACK_MASK_8" ],
  "BLACK_MASK_7_I": [ "BLACK_MASK_7" ],
  "BLACK_MASK_6_I": [ "BLACK_MASK_6" ],
  "BLACK_MASK_5_I": [ "BLACK_MASK_5" ],
  "BLACK_MASK_4_I": [ "BLACK_MASK_4" ],
  "BLACK_MASK_3_I": [ "BLACK_MASK_3" ],
  "BLACK_MASK_2_I": [ "BLACK_MASK_2" ],
  "BLACK_MASK_1_I": [ "BLACK_MASK_1" ],
  "BLACK_MASK_I": [ "BLACK_MASK" ],
  "TRIDENT_OF_THE_SEAS": [ "UNCHARGED_TRIDENT" ],
  "ABYSSAL_TENTACLE": [ "ABYSSAL_WHIP", "KRAKEN_TENTACLE" ],
  "DRAGON_CHAINBODY_G": [ "DRAGON_CHAINBODY", "DRAGON_CHAINBODY_ORNAMENT_KIT" ],
  "DRAGON_PLATELEGS_G": [ "DRAGON_PLATELEGS", "DRAGON_LEGS_SKIRT_ORNAMENT_KIT" ],
  "DRAGON_PLATESKIRT_G": [ "DRAGON_PLATESKIRT", "DRAGON_LEGS_SKIRT_ORNAMENT_KIT" ],
  "DRAGON_FULL_HELM_G": [ "DRAGON_FULL_HELM", "DRAGON_FULL_HELM_ORNAMENT_KIT" ],
  "DRAGON_SQ_SHIELD_G": [ "DRAGON_SQ_SHIELD", "DRAGON_SQ_SHIELD_ORNAMENT_KIT" ],
  "LIGHT_INFINITY_HAT": [ "INFINITY_HAT", "LIGHT_INFINITY_COLOUR_KIT" ],
  "LIGHT_INFINITY_TOP": [ "INFINITY_TOP", "LIGHT_INFINITY_COLOUR_KIT" ],
  "LIGHT_INFINITY_BOTTOMS": [ "INFINITY_BOTTOMS", "LIGHT_INFINITY_COLOUR_KIT" ],
  "AMULET_OF_FURY_OR": [ "AMULET_OF_FURY", "FURY_ORNAMENT_KIT" ],
  "DARK_INFINITY_HAT": [ "INFINITY_HAT", "DARK_INFINITY_COLOUR_KIT" ],
  "DARK_INFINITY_TOP": [ "INFINITY_TOP", "DARK_INFINITY_COLOUR_KIT" ],
  "DARK_INFINITY_BOTTOMS": [ "INFINITY_BOTTOMS", "DARK_INFINITY_COLOUR_KIT" ],
  "TYRANNICAL_RING_I": [ "TYRANNICAL_RING" ],
  "TREASONOUS_RING_I": [ "TREASONOUS_RING" ],
  "VOLCANIC_ABYSSAL_WHIP": [ "ABYSSAL_WHIP", "VOLCANIC_WHIP_MIX" ],
  "FROZEN_ABYSSAL_WHIP": [ "ABYSSAL_WHIP", "FROZEN_WHIP_MIX" ],
  "DRAGON_PICKAXE_12797": [ "DRAGON_PICKAXE", "WARD_UPGRADE_KIT" ],
  "MALEDICTION_WARD_12806": [ "MALEDICTION_WARD", "WARD_UPGRADE_KIT" ],
  "ODIUM_WARD_12807": [ "ODIUM_WARD", "WARD_UPGRADE_KIT" ],
  "SARAS_BLESSED_SWORD_FULL": [ "SARADOMIN_SWORD", "SARADOMINS_TEAR" ],
  "SARADOMINS_BLESSED_SWORD": [ "SARADOMIN_SWORD", "SARADOMINS_TEAR" ],
  "GRANITE_MAUL_12848": [ "GRANITE_MAUL", "GRANITE_CLAMP" ],
  "TRIDENT_OF_THE_SWAMP": [ "UNCHARGED_TOXIC_TRIDENT" ],
  "TOXIC_STAFF_OF_THE_DEAD": [ "TOXIC_STAFF_UNCHARGED" ],
  "TOXIC_BLOWPIPE": [ "TOXIC_BLOWPIPE_EMPTY" ],
  "SERPENTINE_HELM": [ "SERPENTINE_HELM_UNCHARGED" ],
  "TANZANITE_HELM_UNCHARGED": [ "SERPENTINE_HELM_UNCHARGED" ],
  "TANZANITE_HELM": [ "SERPENTINE_HELM_UNCHARGED" ],
  "MAGMA_HELM_UNCHARGED": [ "SERPENTINE_HELM_UNCHARGED" ],
  "MAGMA_HELM": [ "SERPENTINE_HELM_UNCHARGED" ],
  "RING_OF_THE_GODS_I": [ "RING_OF_THE_GODS" ],
  "RING_OF_SUFFERING_I": [ "RING_OF_SUFFERING" ],
  "OCCULT_NECKLACE_OR": [ "OCCULT_NECKLACE", "OCCULT_ORNAMENT_KIT" ],
  "DRAGON_DEFENDER_T": [ "DRAGON_DEFENDER", "DRAGON_DEFENDER_ORNAMENT_KIT" ],
  "DRAGON_SCIMITAR_OR": [ "DRAGON_SCIMITAR", "DRAGON_SCIMITAR_ORNAMENT_KIT" ],
  "AMULET_OF_TORTURE_OR": [ "AMULET_OF_TORTURE", "TORTURE_ORNAMENT_KIT" ],
  "ARMADYL_GODSWORD_OR": [ "ARMADYL_GODSWORD", "ARMADYL_GODSWORD_ORNAMENT_KIT" ],
  "BANDOS_GODSWORD_OR": [ "BANDOS_GODSWORD", "BANDOS_GODSWORD_ORNAMENT_KIT" ],
  "SARADOMIN_GODSWORD_OR": [ "SARADOMIN_GODSWORD", "SARADOMIN_GODSWORD_ORNAMENT_KIT" ],
  "ZAMORAK_GODSWORD_OR": [ "ZAMORAK_GODSWORD", "ZAMORAK_GODSWORD_ORNAMENT_KIT" ],
  "RING_OF_SUFFERING_R": [ "RING_OF_SUFFERING" ],
  "RING_OF_SUFFERING_RI": [ "RING_OF_SUFFERING" ],
  "TOME_OF_FIRE": [ "TOME_OF_FIRE_EMPTY" ],
  "TRIDENT_OF_THE_SEAS_E": [ "UNCHARGED_TRIDENT_E" ],
  "TRIDENT_OF_THE_SWAMP_E": [ "UNCHARGED_TOXIC_TRIDENT_E" ],
  "DRAGON_BOOTS_G": [ "DRAGON_BOOTS", "DRAGON_BOOTS_ORNAMENT_KIT" ],
  "DRAGON_PLATEBODY_G": [ "DRAGON_PLATEBODY", "DRAGON_PLATEBODY_ORNAMENT_KIT" ],
  "DRAGON_KITESHIELD_G": [ "DRAGON_KITESHIELD", "DRAGON_KITESHIELD_ORNAMENT_KIT" ],
  "NECKLACE_OF_ANGUISH_OR": [ "NECKLACE_OF_ANGUISH", "ANGUISH_ORNAMENT_KIT" ],
  "SANGUINESTI_STAFF": [ "SANGUINESTI_STAFF_UNCHARGED" ],
  "SCYTHE_OF_VITUR": [ "SCYTHE_OF_VITUR_UNCHARGED" ],
  "VIGGORAS_CHAINMACE": [ "VIGGORAS_CHAINMACE_U" ],
  "CRAWS_BOW": [ "CRAWS_BOW_U" ],
  "THAMMARONS_SCEPTRE": [ "THAMMARONS_SCEPTRE_U" ],
  "RUNE_DEFENDER_T": [ "RUNE_DEFENDER", "RUNE_DEFENDER_ORNAMENT_KIT" ],
  "TZHAAR_KET_OM_T": [ "TZHAAR_KET_OM", "TZHAAR_KET_OM_ORNAMENT_KIT" ],
  "BERSERKER_NECKLACE_OR": [ "BERSERKER_NECKLACE", "BERSERKER_NECKLACE_ORNAMENT_KIT" ],
  "RUNE_SCIMITAR_23330": [ "RUNE_SCIMITAR", "RUNE_SCIMITAR_ORNAMENT_KIT_GUTHIX" ],
  "RUNE_SCIMITAR_23332": [ "RUNE_SCIMITAR", "RUNE_SCIMITAR_ORNAMENT_KIT_SARADOMIN" ],
  "RUNE_SCIMITAR_23334": [ "RUNE_SCIMITAR", "RUNE_SCIMITAR_ORNAMENT_KIT_ZAMORAK" ],
  "TORMENTED_BRACELET_OR": [ "TORMENTED_BRACELET", "TORMENTED_ORNAMENT_KIT" ],
  "DRAGON_PICKAXE_OR": [ "DRAGON_PICKAXE", "ZALCANO_SHARD" ],
  "TWISTED_ANCESTRAL_HAT": [ "ANCESTRAL_HAT", "TWISTED_ANCESTRAL_COLOUR_KIT" ],
  "TWISTED_ANCESTRAL_ROBE_TOP": [ "ANCESTRAL_ROBE_TOP", "TWISTED_ANCESTRAL_COLOUR_KIT" ],
  "TWISTED_ANCESTRAL_ROBE_BOTTOM": [ "ANCESTRAL_ROBE_BOTTOM", "TWISTED_ANCESTRAL_COLOUR_KIT" ],

  "VESTAS_LONGSWORD_CHARGED_32254": [ "VESTAS_LONGSWORD" ],
  "STATIUSS_WARHAMMER_CHARGED_32255": [ "STATIUSS_WARHAMMER" ],
  "VESTAS_SPEAR_CHARGED_32256": [ "VESTAS_SPEAR" ],
  "ZURIELS_STAFF_CHARGED_32257": [ "ZURIELS_STAFF" ]
}
