{
  "name": "Bond Shop",
  "variableCurrency": "bonds",
  "sections": [ { "items": [
    { "id": "ItemId.BOSS_INSTANCE_SCROLL_32313", "price": 10, "stack": 10 },
    { "id": "ItemId._25_DROP_BOOST_SCROLL_1_HOUR_32355", "price": 20 },
    { "id": "ItemId._25_DROP_BOOST_SCROLL_4_HOURS_32356", "price": 65 },
    { "id": "ItemId._25_DROP_BOOST_SCROLL_8_HOURS_32357", "price": 110 },
    { "id": "ItemId._25_DROP_BOOST_SCROLL_16_HOURS_32358", "price": 205 },
    { "id": "ItemId.PERMANENT_TZHAAR_WAVE_BOOST_32300", "price": 240 },
    { "id": "ItemId.HERB_SACK", "price": 90 },
    { "id": "ItemId.SEED_BOX", "price": 90 },
    { "id": "ItemId.CRYSTAL_KEY", "price": 6, "stack": 3 },
    { "id": "ItemId.LUMBERJACK_OUTFIT_WOODCUTTING_32291", "price": 40 },
    {
      "id": "ItemId.LUMBERJACK_OUTFIT_WOODCUTTING_32291",
      "price": 0,
      "costItems": [
        [ { "id": "ItemId.LUMBERJACK_HAT",  "amount": 1 } ],
        [ { "id": "ItemId.LUMBERJACK_TOP",  "amount": 1 } ],
        [ { "id": "ItemId.LUMBERJACK_LEGS",  "amount": 1 } ],
        [ { "id": "ItemId.LUMBERJACK_BOOTS",  "amount": 1 } ]
      ]
    },
    { "id": "ItemId.PROSPECTOR_OUTFIT_MINING_32292", "price": 40 },
    {
      "id": "ItemId.PROSPECTOR_OUTFIT_MINING_32292",
      "price": 0,
      "costItems": [
        [ { "id": "ItemId.PROSPECTOR_HELMET",  "amount": 1 } ],
        [ { "id": "ItemId.PROSPECTOR_JACKET",  "amount": 1 } ],
        [ { "id": "ItemId.PROSPECTOR_LEGS",  "amount": 1 } ],
        [ { "id": "ItemId.PROSPECTOR_BOOTS",  "amount": 1 } ]
      ]
    },
    { "id": "ItemId.ANGLER_OUTFIT_FISHING_32293", "price": 40 },
    {
      "id": "ItemId.ANGLER_OUTFIT_FISHING_32293",
      "price": 0,
      "costItems": [
        [ { "id": "ItemId.ANGLER_HAT",  "amount": 1 } ],
        [ { "id": "ItemId.ANGLER_TOP",  "amount": 1 } ],
        [ { "id": "ItemId.ANGLER_WADERS",  "amount": 1 } ],
        [ { "id": "ItemId.ANGLER_BOOTS",  "amount": 1 } ]
      ]
    },
    { "id": "ItemId.PYROMANCER_OUTFIT_FIREMAKING_32294", "price": 40 },
    {
      "id": "ItemId.PYROMANCER_OUTFIT_FIREMAKING_32294",
      "price": 0,
      "costItems": [
        [ { "id": "ItemId.PYROMANCER_HOOD",  "amount": 1 } ],
        [ { "id": "ItemId.PYROMANCER_GARB",  "amount": 1 } ],
        [ { "id": "ItemId.PYROMANCER_ROBE",  "amount": 1 } ],
        [ { "id": "ItemId.PYROMANCER_BOOTS",  "amount": 1 } ],
        [ { "id": "ItemId.WARM_GLOVES",  "amount": 1 } ]
      ]
    },
    { "id": "ItemId.ROGUE_OUTFIT_THIEVING_32295", "price": 40 },
    {
      "id": "ItemId.ROGUE_OUTFIT_THIEVING_32295",
      "price": 0,
      "costItems": [
        [ { "id": "ItemId.ROGUE_MASK",  "amount": 1 } ],
        [ { "id": "ItemId.ROGUE_TOP",  "amount": 1 } ],
        [ { "id": "ItemId.ROGUE_TROUSERS",  "amount": 1 } ],
        [ { "id": "ItemId.ROGUE_BOOTS",  "amount": 1 } ],
        [ { "id": "ItemId.ROGUE_GLOVES",  "amount": 1 } ]
      ]
    },
    { "id": "ItemId.LARUPIA_OUTFIT_HUNTER_32296", "price": 40 },
    {
      "id": "ItemId.LARUPIA_OUTFIT_HUNTER_32296",
      "price": 0,
      "costItems": [
        [ { "id": "ItemId.LARUPIA_HAT",  "amount": 1 } ],
        [ { "id": "ItemId.LARUPIA_TOP",  "amount": 1 } ],
        [ { "id": "ItemId.LARUPIA_LEGS",  "amount": 1 } ]
      ]
    },
    { "id": "ItemId.FARMERS_OUTFIT_FARMING_32297", "price": 40 },
    {
      "id": "ItemId.FARMERS_OUTFIT_FARMING_32297",
      "price": 0,
      "costItems": [
        [ { "id": "ItemId.FARMERS_STRAWHAT",  "amount": 1 } ],
        [ { "id": "ItemId.FARMERS_JACKET",  "amount": 1 } ],
        [ { "id": "ItemId.FARMERS_BORO_TROUSERS",  "amount": 1 } ],
        [ { "id": "ItemId.FARMERS_BOOTS",  "amount": 1 } ]
      ]
    },
    { "id": "ItemId.GRACEFUL_OUTFIT_AGILITY_32298", "price": 40 },
    {
      "id": "ItemId.GRACEFUL_OUTFIT_AGILITY_32298",
      "price": 0,
      "costItems": [
        [ { "id": "ItemId.GRACEFUL_HOOD",  "amount": 1 } ],
        [ { "id": "ItemId.GRACEFUL_TOP",  "amount": 1 } ],
        [ { "id": "ItemId.GRACEFUL_LEGS",  "amount": 1 } ],
        [ { "id": "ItemId.GRACEFUL_GLOVES",  "amount": 1 } ],
        [ { "id": "ItemId.GRACEFUL_BOOTS",  "amount": 1 } ],
        [ { "id": "ItemId.GRACEFUL_CAPE",  "amount": 1 } ]
      ]
    },
    { "id": "ItemId.ELIDINIS_OUTFIT_RUNECRAFTING_32299", "price": 40 },
    {
      "id": "ItemId.ELIDINIS_OUTFIT_RUNECRAFTING_32299",
      "price": 0,
      "costItems": [
        [ { "id": "ItemId.ROBE_OF_ELIDINIS",  "amount": 1 } ],
        [ { "id": "ItemId.ROBE_OF_ELIDINIS_6787",  "amount": 1 } ]
      ]
    },
    { "id": "ItemId.COOKING_GAUNTLETS", "price": 40 },
    { "id": "ItemId.GOLDSMITH_GAUNTLETS", "price": 40 },
    { "id": "ItemId.RUBBER_CHICKEN", "price": 500 },
    { "id": "ItemId.ZULRAHS_SCALES", "price": 10, "stack": 2000 },
    { "id": "ItemId.CRYSTAL_SHARD", "price": 10, "stack": 500 }
  ] } ]
}
