{
  "name": "Donator Supplies Shop",
  "sections": [ { "items": [
    { "id": "ItemId.RUNITE_BOLTS_UNF", "price": 350 },
    { "id": "ItemId.RUNE_ARROWTIPS", "price": 260},
    { "id": "ItemId.ADAMANT_ARROWTIPS", "price": 70 },
    { "id": "ItemId.COAL", "price": 300 },
    { "id": "ItemId.GOLD_ORE", "price": 1500 },
    { "id": "ItemId.RAW_ANGLERFISH", "price": 1100 },
    { "id": "ItemId.RAW_KARAMBWAN", "price": 600 },
    { "id": "ItemId.RANARR_SEED", "price": 3000 },
    { "id": "ItemId.TOADFLAX_SEED", "price": 4000 },
    { "id": "ItemId.IRIT_SEED", "price": 5000 },
    { "id": "ItemId.AVANTOE_SEED", "price": 6000 },
    { "id": "ItemId.KWUARM_SEED", "price": 7000 },
    { "id": "ItemId.SNAPDRAGON_SEED", "price": 8000 },
    { "id": "ItemId.CADANTINE_SEED", "price": 9000 },
    { "id": "ItemId.LANTADYME_SEED", "price": 10000 },
    { "id": "ItemId.DWARF_WEED_SEED", "price": 11000 },
    { "id": "ItemId.TORSTOL_SEED", "price": 12000 }
  ] } ]
}
