{
  "name": "Tournament Rewards",
  "variableCurrency": "tournament points",
  "sections": [ { "items": [
    { "id": "ItemId.TWISTED_HORNS", "price": 50 },
    { "id": "ItemId.BLADE_OF_SAELDOR", "price": 100 },
    { "id": "ItemId.DEXTEROUS_PRAYER_SCROLL", "price": 75 },
    { "id": "ItemId.ARCANE_PRAYER_SCROLL", "price": 50 },
    { "id": "ItemId.TORN_PRAYER_SCROLL", "price": 10 },
    { "id": "ItemId.CRYSTAL_SHARD", "stack": 10, "price": 1 },
    { "id": "ItemId.SWIFT_BLADE", "price": 20 },
    { "id": "ItemId.GUTHIXIAN_ICON", "price": 40 },
    { "id": "ItemId.VOID_MELEE_HELM", "price": 3 },
    { "id": "ItemId.VOID_RANGER_HELM", "price": 3 },
    { "id": "ItemId.VOID_MAGE_HELM", "price": 3 },
    { "id": "ItemId.VOID_KNIGHT_TOP", "price": 4 },
    { "id": "ItemId.VOID_KNIGHT_ROBE", "price": 4 },
    { "id": "ItemId.VOID_KNIGHT_GLOVES", "price": 2 },
    { "id": "ItemId.FIGHTER_TORSO", "price": 4 },
    { "id": "ItemId.HEALER_HAT", "price": 5 },
    { "id": "ItemId.FIGHTER_HAT", "price": 5 },
    { "id": "ItemId.RUNNER_HAT", "price": 5 },
    { "id": "ItemId.RANGER_HAT", "price": 5 },
    { "id": "ItemId.PENANCE_SKIRT", "price": 5 },
    { "id": "ItemId.SARADOMIN_HALO", "price": 8 },
    { "id": "ItemId.ZAMORAK_HALO", "price": 8 },
    { "id": "ItemId.GUTHIX_HALO", "price": 8 },
    { "id": "ItemId.ARMADYL_HALO", "price": 8 },
    { "id": "ItemId.BANDOS_HALO", "price": 8 },
    { "id": "ItemId.SEREN_HALO", "price": 8 },
    { "id": "ItemId.ANCIENT_HALO", "price": 8 },
    { "id": "ItemId.BRASSICA_HALO", "price": 8 },
    { "id": "ItemId.DECORATIVE_ARMOUR_11898", "price": 2 },
    { "id": "ItemId.DECORATIVE_ARMOUR_11896", "price": 4 },
    { "id": "ItemId.DECORATIVE_ARMOUR_11897", "price": 3 },
    { "id": "ItemId.DECORATIVE_ARMOUR_11899", "price": 4 },
    { "id": "ItemId.DECORATIVE_ARMOUR_11900", "price": 3 },
    { "id": "ItemId.DECORATIVE_ARMOUR_11901", "price": 4 },
    { "id": "ItemId.DECORATIVE_HELM", "price": 2 },
    { "id": "ItemId.DECORATIVE_ARMOUR", "price": 4 },
    { "id": "ItemId.DECORATIVE_ARMOUR_4070", "price": 3 },
    { "id": "ItemId.DECORATIVE_ARMOUR_11893", "price": 3 },
    { "id": "ItemId.DECORATIVE_SHIELD", "price": 3 },
    { "id": "ItemId.DECORATIVE_HELM_4506", "price": 4 },
    { "id": "ItemId.DECORATIVE_ARMOUR_4504", "price": 8 },
    { "id": "ItemId.DECORATIVE_ARMOUR_4505", "price": 6 },
    { "id": "ItemId.DECORATIVE_ARMOUR_11894", "price": 6 },
    { "id": "ItemId.DECORATIVE_SHIELD_4507", "price": 6 },
    { "id": "ItemId.DECORATIVE_HELM_4511", "price": 40 },
    { "id": "ItemId.DECORATIVE_ARMOUR_4509", "price": 80 },
    { "id": "ItemId.DECORATIVE_ARMOUR_4510", "price": 60 },
    { "id": "ItemId.DECORATIVE_ARMOUR_11895", "price": 60 },
    { "id": "ItemId.DECORATIVE_SHIELD_4512", "price": 60 },
    { "id": "ItemId.BEARHEAD", "price": 4 },
    { "id": "ItemId.AVAS_ACCUMULATOR", "price": 2 },
    { "id": "ItemId.DWARVEN_HELMET", "price": 5 },
    { "id": "ItemId.GRANITE_BODY", "price": 5 }
  ] } ]
}
