{
  "name": "Culinaromancer Shop",
  "sections": [ { "items": [
    { "id": "ItemId.HARDLEATHER_GLOVES", "price": 65 },
    { "id": "ItemId.BRONZE_GLOVES", "price": 130 },
    { "id": "ItemId.IRON_GLOVES", "price": 325 },
    { "id": "ItemId.STEEL_GLOVES", "price": 650 },
    { "id": "ItemId.BLACK_GLOVES", "price": 1300 },
    { "id": "ItemId.MITHRIL_GLOVES", "price": 1950 },
    { "id": "ItemId.ADAMANT_GLOVES", "price": 3250 },
    { "id": "ItemId.RUNE_GLOVES", "price": 6500 },
    { "id": "ItemId.DRAGON_GLOVES", "price": 130000 },
    { "id": "ItemId.BARROWS_GLOVES", "price": 130000 }
  ] } ]
}
