{
  "ANIMATION_SKELETON": {},
  "ANIMATION_SKIN": {},
  "CONFIG": {
    "UNKNOWN_0": [],
    "UNDERLAY": [],
    "UNKNOWN_2": [],
    "IDENTITY_KIT": [],
    "OVERLAY": [],
    "INVENTORY": [],
    "OBJECT": [],
    "UNKNOWN_7": [],
    "ENUM": [],
    "NPC": [],
    "ITEM": [],
    "PARAM": [],
    "ANIMATION": [],
    "GRAPHIC": [],
    "VARBIT": [],
    "VAR_CLIENTSTRING": [],
    "VAR_PLAYER": [],
    "UNKNOWN_17": [],
    "UNKNOWN_18": [],
    "VAR_CLIENT": [],
    "UNKNOWN_20": [],
    "UNKNOWN_21": [],
    "UNKNOWN_22": [],
    "UNKNOWN_23": [],
    "UNKNOWN_24": [],
    "UNKNOWN_25": [],
    "UNKNOWN_26": [],
    "UNKNOWN_27": [],
    "UNKNOWN_28": [],
    "UNKNOWN_29": [],
    "UNKNOWN_30": [],
    "UNKNOWN_31": [],
    "HIT_MARK": [],
    "HITPOINTS_BAR": [],
    "STRUCT": [],
    "AREA": []
  },
  "WIDGET": {},
  "SOUND_EFFECT": {},
  "MAP": {},
  "MUSIC_1": {},
  "MODEL": {},
  "SPRITE": {},
  "TEXTURE": {},
  "BINARY": {},
  "MUSIC_2": {},
  "CLIENTSCRIPT": {},
  "FONT": {},
  "MIDI": {},
  "INSTRUMENT": {},
  "WORLD_MAP": {},
  "UNKNOWN_17": {},
  "UNKNOWN_18": {},
  "UNKNOWN_19": {},
  "UNKNOWN_20": {}
}
